{
  "w2v model filepath": "path/to/w2v.mdl",
  "input graph json filepath": "/path/to/graph.json",
  "output graph json filepath": "/path/to/updated_graph.json",
  "classification categories": ["chemistry", "biology", "computer science"]
}